#File written by LIBRIZOMUV. Compilation :Jul  1 2019,12:46:38
mtllib mesa:mtl
#begin vertices
v -8.0721 0 118.7532
v -8.0721 0 111.6089
v -0.1243 0 111.6089
v -0.1243 0 118.7532
v -8.0721 163.5342 118.7532
v -0.1243 163.5342 118.7532
v -0.1243 163.5342 111.6089
v -8.0721 163.5342 111.6089
v -0.1243 16.3578 118.7532
v -8.0721 16.3578 118.7532
v -0.1243 16.3578 111.6089
v -8.0721 16.3578 111.6089
v 54.3716 0 118.7532
v 54.3716 0 111.6089
v 62.3194 0 111.6089
v 62.3194 0 118.7532
v 54.3716 87.4778 118.7532
v 62.3194 87.4778 118.7532
v 62.3194 87.4778 111.6089
v 54.3716 87.4778 111.6089
v 62.3194 16.4199 118.7532
v 54.3716 16.4199 118.7532
v 62.3194 16.4199 111.6089
v 54.3716 16.4199 111.6089
v -8.0721 0 -32.8757
v -8.0721 0 -40.02
v -0.1243 0 -40.02
v -0.1243 0 -32.8757
v -8.0721 163.5342 -32.8757
v -0.1243 163.5342 -32.8757
v -0.1243 163.5342 -40.02
v -8.0721 163.5342 -40.02
v -0.1243 16.9928 -32.8757
v -8.0721 16.9928 -32.8757
v -0.1243 16.9928 -40.02
v -8.0721 16.9928 -40.02
v 54.3716 0 -32.8757
v 54.3716 0 -40.02
v 62.3194 0 -40.02
v 62.3194 0 -32.8757
v 54.3716 87.4778 -32.8757
v 62.3194 87.4778 -32.8757
v 62.3194 87.4778 -40.02
v 54.3716 87.4778 -40.02
v 62.3194 16.9597 -32.8757
v 54.3716 16.9597 -32.8757
v 62.3194 16.9597 -40.02
v 54.3716 16.9597 -40.02
v -0.1243 81.9157 118.7532
v -0.1243 87.4778 118.7532
v -8.0721 87.4778 118.7532
v -8.0721 81.9157 118.7532
v -8.0721 87.4778 111.6089
v -8.0721 81.9157 111.6089
v 62.3194 81.8974 118.7532
v 54.3716 81.8974 118.7532
v 62.3194 81.8974 111.6089
v 62.3194 81.3891 -40.02
v 62.3194 81.3891 -32.8757
v 54.3716 81.3891 -40.02
v -8.0721 81.3607 -40.02
v -8.0721 87.4778 -40.02
v -0.1243 87.4778 -40.02
v -0.1243 81.3607 -40.02
v -8.0721 81.3607 -32.8757
v -8.0721 87.4778 -32.8757
v 54.3716 81.3891 -32.8757
v 54.3716 81.8974 111.6089
v -0.1243 159.6835 -32.8757
v -8.0721 159.6835 -32.8757
v -8.0721 159.6835 111.6089
v -0.1243 159.6835 111.6089
v -0.1243 81.3607 -32.8757
v -0.1243 81.9157 111.6089
v -0.1243 87.4778 -32.8757
v -0.1243 87.4778 111.6089
v 8.3213 87.4778 118.7532
v 8.3213 87.4778 111.6089
v 8.3213 87.4778 -32.8757
v 8.3213 87.4778 -40.02
v 62.3194 19.2108 118.7532
v 54.3716 19.2108 118.7532
v 62.3194 19.2108 111.6089
v 54.3716 19.2108 111.6089
v 62.3194 19.2108 -32.8757
v 54.3716 19.2108 -32.8757
v 62.3194 19.2108 -40.02
v 54.3716 19.2108 -40.02
v -0.1243 19.1096 -32.8757
v -8.0721 19.1096 -32.8757
v -0.1243 19.1096 -40.02
v -8.0721 19.1096 -40.02
v -0.1243 18.898 118.7532
v -8.0721 18.898 118.7532
v -0.1243 18.898 111.6089
v -8.0721 18.898 111.6089
v -0.1243 152.6207 118.7532
v -8.0721 152.6207 118.7532
v 8.3213 152.6207 111.6089
v 8.3213 152.6207 118.7532
v -0.1243 152.6207 -32.8757
v -0.1243 152.6207 111.6089
v 8.3213 152.6207 -40.02
v 8.3213 152.6207 -32.8757
v -8.0721 152.6207 -40.02
v -0.1243 152.6207 -40.02
v -8.0721 152.6207 -32.8757
v -8.0721 152.6207 111.6089
v -0.1243 159.6835 118.7532
v -8.0721 159.6835 118.7532
v 15.9052 152.6207 111.6089
v 15.9052 159.6835 111.6089
v 15.9052 159.6835 118.7532
v 15.9052 152.6207 118.7532
v 15.9052 152.6207 -32.8757
v 15.9052 159.6835 -32.8757
v 15.9052 152.6207 -40.02
v 15.9052 159.6835 -40.02
v -8.0721 159.6835 -40.02
v -0.1243 159.6835 -40.02
v -5.922 87.4099 110.7419
v -5.922 87.4099 -32.6296
v 8.2607 87.4099 -32.6296
v 8.2607 87.4099 110.7419
v -5.922 88.7467 110.7419
v 8.2607 88.7467 110.7419
v 8.2607 88.7467 -32.6296
v -5.922 88.7467 -32.6296
v 55.1137 87.4099 116.0955
v 55.1137 87.4099 -37.4774
v 55.1137 88.7467 -37.4774
v 55.1137 88.7467 116.0955
v 8.8705 87.4099 -37.4774
v 8.8705 88.7467 -37.4774
v 8.8705 87.4099 116.0955
v 8.8705 88.7467 116.0955
#end vertices

#begin 310 textures vertices 
vt 0.6213076 0.2108646 0
vt 0.5876894 0.2108646 0
vt 0.692325 0.2108646 0
vt 0.6587068 0.2108646 0
vt 0.003211931 0.002718574 0
vt 0.003971757 0.00282689 0
vt 0.00388771 0.003513517 0
vt 0.003110589 0.003413673 0
vt 0.6587068 0.2878379 0
vt 0.6213076 0.2878379 0
vt 0.2143248 0.5803435 0
vt 0.203577 0.588984 0
vt 0.7919577 0.1015483 0
vt 0.8791 0.1015483 0
vt 0.8490395 0.1015483 0
vt 0.8220181 0.1015483 0
vt 0.3377009 0.3213225 0
vt 0.2735894 0.7168214 0
vt 0.3217141 0.3069519 0
vt 0.3377009 0.3069519 0
vt 0.6390533 0.3694089 0
vt 0.634977 0.3620507 0
vt 0.6346338 0.3756549 0
vt 0.8791 0.1636522 0
vt 0.6627509 0.05874312 0
vt 0.627831 0.05874312 0
vt 0.627831 0.01989591 0
vt 0.7015981 0.05874312 0
vt 0.003211931 0.002718574 0
vt 0.003971757 0.00282689 0
vt 0.00388771 0.003513517 0
vt 0.003110589 0.003413673 0
vt 0.7015981 0.1418004 0
vt 0.6627509 0.1418004 0
vt 0.04948145 0.375295 0
vt 0.4860066 0.4231105 0
vt 0.701434 0.05673519 0
vt 0.666239 0.05673519 0
vt 0.6270856 0.05673519 0
vt 0.6270856 0.02154013 0
vt 0.3377009 0.01632375 0
vt 0.3217141 0.01632375 0
vt 0.1267579 0.9411986 0
vt 0.3377009 0.001953125 0
vt 0.5250355 0.4713888 0
vt 0.1309448 0.3257106 0
vt 0.5179346 0.4722186 0
vt 0.666239 0.140284 0
vt 0.1920621 0.646133 0
vt 0.1070462 0.001953125 0
vt 0.1769328 0.6520024 0
vt 0.1760234 0.6431 0
vt 0.1696534 0.6573828 0
vt 0.1622714 0.6509491 0
vt 0.7792413 0.5867699 0
vt 0.160823 0.6912595 0
vt 0.8092365 0.5867699 0
vt 0.7792413 0.5867699 0
vt 0.1108811 0.8342685 0
vt 0.8092365 0.5867699 0
vt 0.02152877 0.8806822 0
vt 0.03114136 0.8794432 0
vt 0.03747942 0.8873514 0
vt 0.1695333 0.8586944 0
vt 0.02356128 0.8654449 0
vt 0.0333755 0.8698777 0
vt 0.8361992 0.5867699 0
vt 0.8361992 0.5867699 0
vt 0.05208017 0.1305036 0
vt 0.002893523 0.002508664 0
vt 0.002892589 0.003725369 0
vt 0.05208017 0.031669 0
vt 0.1714444 0.8515237 0
vt 0.7222835 0.3521078 0
vt 0.1681575 0.8461496 0
vt 0.2086946 0.7181564 0
vt 0.1994456 0.6628896 0
vt 0.4303303 0.3069519 0
vt 0.1070462 0.1321947 0
vt 0.4303303 0.001953125 0
vt 0.7792413 0.3521078 0
vt 0.7522786 0.3521078 0
vt 0.8092365 0.3521078 0
vt 0.6266942 0.3740397 0
vt 0.7522786 0.3521078 0
vt 0.2880201 0.5210985 0
vt 0.7792413 0.3521078 0
vt 0.8092365 0.3521078 0
vt 0.7222835 0.3521078 0
vt 0.4909733 0.4192392 0
vt 0.2220917 0.5900048 0
vt 0.7792413 0.3521078 0
vt 0.7522786 0.5867699 0
vt 0.5846703 0.3366428 0
vt 0.8361992 0.5867699 0
vt 0.04650049 0.3935968 0
vt 0.1516398 0.001953125 0
vt 0.1516398 0.007393792 0
vt 0.1516398 0.2426646 0
vt 0.1516398 0.2475552 0
vt 0.1516398 0.1379762 0
vt 0.04664349 0.02678195 0
vt 0.06355237 0.03799584 0
vt 0.04664349 0.06046316 0
vt 0.1516398 0.116082 0
vt 0.1516398 0.1215227 0
vt 0.1516398 0.1111914 0
vt 0.1516398 0.01228442 0
vt 0.0041761 0.002500707 0
vt 0.06838368 0.168194 0
vt 0.06355237 0.1469053 0
vt 0.06838368 0.1469053 0
vt 0.06304514 0.02678195 0
vt 0.04664349 0.06046316 0
vt 0.06355237 0.04807066 0
vt 0.06838368 0.04807066 0
vt 0.04664349 0.02678195 0
vt 0.06304514 0.1353907 0
vt 0.06838368 0.02678195 0
vt 0.004206104 0.003717224 0
vt 0.5162374 0.9240962 0
vt 0.5162374 0.6446383 0
vt 0.5438822 0.6446383 0
vt 0.5438822 0.9240962 0
vt 0.7562572 0.9240962 0
vt 0.4897196 0.6404839 0
vt 0.495207 0.9803186 0
vt 0.7562572 0.6446383 0
vt 0.3916968 0.679357 0
vt 0.6352074 0.635189 0
vt 0.4018227 0.984628 0
vt 0.3891352 0.678191 0
vt 0.5450708 0.635189 0
vt 0.4898996 0.9897904 0
vt 0.4784294 0.6380273 0
vt 0.4781451 0.635189 0
vt 0.06838368 0.1627573 0
vt 0.002892589 0.003725369 0
vt 0.06838368 0.2719156 0
vt 0.004206104 0.003717224 0
vt 0.0041761 0.002500707 0
vt 0.002893523 0.002508664 0
vt 0.04664349 0.031669 0
vt 0.05208017 0.1353907 0
vt 0.06355237 0.2768027 0
vt 0.06355237 0.1627573 0
vt 0.06355237 0.173081 0
vt 0.04664349 0.06046316 0
vt 0.06355237 0.03221863 0
vt 0.06355237 0.168194 0
vt 0.06355237 0.2719156 0
vt 0.04664349 0.02678195 0
vt 0.06355237 0.1569801 0
vt 0.06355237 0.1517923 0
vt 0.06355237 0.0431836 0
vt 0.04664349 0.02678195 0
vt 0.06838368 0.03221863 0
vt 0.06304514 0.031669 0
vt 0.06304514 0.1305036 0
vt 0.06838368 0.0431836 0
vt 0.06838368 0.1517923 0
vt 0.05208017 0.02678195 0
vt 0.04664349 0.1305036 0
vt 0.06838368 0.173081 0
vt 0.06355237 0.02678195 0
vt 0.06838368 0.2768027 0
vt 0.1516398 0.2533366 0
vt 0.04664349 0.06046316 0
vt 0.04664349 0.02678195 0
vt 0.1516398 0.2368831 0
vt 0.1070462 0.2533366 0
vt 0.1070462 0.2475552 0
vt 0.1070462 0.2426646 0
vt 0.1070462 0.2368831 0
vt 0.1070462 0.1215227 0
vt 0.1634777 0.8435289 0
vt 0.1070462 0.1273041 0
vt 0.1070462 0.116082 0
vt 0.1883446 0.6550402 0
vt 0.1070462 0.1111914 0
vt 0.1070462 0.01228442 0
vt 0.1070462 0.1379762 0
vt 0.1070462 0.007393792 0
vt 0.1516398 0.1321947 0
vt 0.1516398 0.1273041 0
vt 0.04664349 0.06046316 0
vt 0.6352074 0.9345314 0
vt 0.4040984 0.9830357 0
vt 0.4886473 0.9872865 0
vt 0.4929535 0.9785838 0
vt 0.5112469 0.9556973 0
vt 0.511225 0.661943 0
vt 0.5450708 0.9345314 0
vt 0.488079 0.642839 0
vt 0.7286124 0.9240962 0
vt 0.5139447 0.6611336 0
vt 0.7274238 0.9345314 0
vt 0.6372872 0.9345314 0
vt 0.6372872 0.635189 0
vt 0.7274238 0.635189 0
vt 0.7286124 0.6446383 0
vt 0.5139447 0.9566516 0
vt 0.2669307 0.7087082 0
vt 0.4303303 0.3213225 0
vt 0.200869 0.7159611 0
vt 0.1617981 0.7029044 0
vt 0.3217141 0.3213225 0
vt 0.1336284 0.9358696 0
vt 0.2714493 0.7265192 0
vt 0.1245764 0.8339109 0
vt 0.4303303 0.01632375 0
vt 0.0497905 0.8953632 0
vt 0.1158185 0.9384753 0
vt 0.3217141 0.001953125 0
vt 0.7522786 0.3521078 0
vt 0.7792413 0.3521078 0
vt 0.2219347 0.7186985 0
vt 0.2732971 0.7011726 0
vt 0.282429 0.7156654 0
vt 0.2803416 0.7307087 0
vt 0.1416296 0.9430153 0
vt 0.1277751 0.9508372 0
vt 0.1114781 0.9482126 0
vt 0.8092365 0.5867699 0
vt 0.03040922 0.8954721 0
vt 0.7792413 0.5867699 0
vt 0.1169211 0.8433987 0
vt 0.7522786 0.5867699 0
vt 0.1189059 0.836213 0
vt 0.1505632 0.6963511 0
vt 0.1586115 0.6983451 0
vt 0.7522786 0.5867699 0
vt 0.2161695 0.7092501 0
vt 0.213997 0.7163794 0
vt 0.8092365 0.3521078 0
vt 0.7522786 0.5867699 0
vt 0.1793622 0.8539436 0
vt 0.8361992 0.5867699 0
vt 0.6367286 0.3693174 0
vt 0.6340969 0.3735427 0
vt 0.7222835 0.3521078 0
vt 0.123178 0.3160493 0
vt 0.8361992 0.3521078 0
vt 0.7222835 0.5867699 0
vt 0.05724832 0.3849563 0
vt 0.8092365 0.5867699 0
vt 0.7792413 0.5867699 0
vt 0.5908936 0.3392171 0
vt 0.7222835 0.5867699 0
vt 0.8361992 0.3521078 0
vt 0.7522786 0.3521078 0
vt 0.4877671 0.4234531 0
vt 0.8092365 0.3521078 0
vt 0.2143248 0.5803435 0
vt 0.7222835 0.3521078 0
vt 0.5238893 0.469801 0
vt 0.5190042 0.4707123 0
vt 0.5151343 0.4658637 0
vt 0.7222835 0.5867699 0
vt 0.8361992 0.3521078 0
vt 0.8361992 0.3521078 0
vt 0.7222835 0.5867699 0
vt 0.8490395 0.1636522 0
vt 0.8220181 0.1636522 0
vt 0.6278001 0.3762395 0
vt 0.6270856 0.140284 0
vt 0.5918906 0.140284 0
vt 0.5288477 0.4645137 0
vt 0.5134383 0.4669133 0
vt 0.627831 0.1418004 0
vt 0.4879517 0.42978 0
vt 0.4895814 0.4179762 0
vt 0.5845925 0.3345047 0
vt 0.5784534 0.3372825 0
vt 0.5917241 0.3371182 0
vt 0.295787 0.5307597 0
vt 0.203577 0.588984 0
vt 0.5799961 0.3389378 0
vt 0.04948145 0.375295 0
vt 0.6336555 0.3641559 0
vt 0.5272452 0.4632998 0
vt 0.1309448 0.3257106 0
vt 0.4895984 0.4288511 0
vt 0.295787 0.5307597 0
vt 0.5876894 0.2878379 0
vt 0.692325 0.2878379 0
vt 0.2220917 0.5900048 0
vt 0.7919577 0.1636522 0
vt 0.2880201 0.5210985 0
vt 0.701434 0.140284 0
vt 0.123178 0.3160493 0
vt 0.04650049 0.3935968 0
vt 0.5889838 0.1418004 0
vt 0.05724832 0.3849563 0
vt 0.5540639 0.1418004 0
vt 0.5527372 0.140284 0
vt 0.7649363 0.1636522 0
vt 0.5502902 0.2878379 0
vt 0.5502902 0.2108646 0
vt 0.5876894 0.1734655 0
vt 0.6213076 0.1734655 0
vt 0.8490395 0.07148791 0
vt 0.8220181 0.07148791 0
vt 0.7649363 0.1015483 0
vt 0.666239 0.02154013 0
vt 0.5527372 0.05673519 0
vt 0.5918906 0.05673519 0
vt 0.5540639 0.05874312 0
vt 0.6627509 0.01989591 0
vt 0.5889838 0.05874312 0
#end 310 textures vertices 

#begin 75 normals 
vn -0.5774 -0.5774 0.5774
vn -0.5774 -0.5774 -0.5774
vn 0.5774 -0.5774 -0.5774
vn 0.5774 -0.5774 0.5774
vn -0.5774 0.5774 0.5774
vn 0.5774 0.5774 0.5774
vn 0.5774 0.5774 -0.5774
vn -0.5774 0.5774 -0.5774
vn 0.3019 -0.3015 0.9044
vn -0.7071 0 0.7071
vn 0.3019 -0.9036 -0.3039
vn -0.904 -0.3016 -0.3029
vn 0 0.7071 0.7071
vn 0.7071 0.7071 -0
vn -0.3015 0.9045 -0.3015
vn 0.7071 0 0.7071
vn -0.3011 -0.3015 0.9047
vn 0.7071 0 -0.7071
vn -0 -0.7064 -0.7078
vn 0.3014 -0.9054 0.2991
vn -0.905 -0.3014 0.3001
vn 0.3013 -0.3015 -0.9046
vn -0.7071 0 -0.7071
vn -0.3015 0.9045 0.3015
vn 0 0.7071 -0.7071
vn 0.0004 -0.7078 0.7064
vn -0.3017 -0.3015 -0.9045
vn 0.3014 -0.3015 0.9046
vn 0 -0 1
vn -0.7071 -0 0.7071
vn -1 0 -0
vn -0.905 -0.3014 -0.3003
vn 0.7071 -0 0.7071
vn -0.3016 -0.3015 0.9045
vn 0.9049 -0.3014 -0.3004
vn 0.9041 -0.3016 0.3027
vn -0.3013 -0.3015 -0.9046
vn 0 0 -1
vn 0.3017 -0.3015 -0.9045
vn -0.9041 -0.3016 0.3028
vn -0.5765 -0.5772 0.5784
vn -0.5782 -0.5775 -0.5764
vn 0.3015 0.9045 0.3015
vn -0.9045 0.3015 0.3015
vn -0.9045 0.3015 -0.3015
vn 0.3015 0.9045 -0.3015
vn 0.5766 -0.5772 0.5782
vn 0.5781 -0.5775 -0.5765
vn 0.7071 -0 -0.7071
vn 0.3015 0.3015 0.9045
vn 0.3015 0.3015 -0.9045
vn -0.3034 0.3016 0.9039
vn -0.0041 0.7071 -0.7071
vn -0.0013 0.7071 0.7071
vn -0.3021 0.3016 -0.9043
vn 0.3004 0.9046 0.3024
vn -0.9044 0.3015 0.302
vn 0.3009 0.3015 -0.9048
vn 0.2996 0.3014 0.9052
vn 0.2984 0.9057 -0.301
vn -0.9047 0.3015 -0.301
vn 0 0 1
vn 0.3015 -0.9045 -0.3015
vn 0.3015 -0.3015 0.9045
vn 0.3015 -0.3015 -0.9045
vn 0.3015 -0.9045 0.3015
vn 0.7071 -0.7071 -0
vn -0.3022 -0.8895 -0.3426
vn -0.3024 -0.891 0.3388
vn -0.3024 0.891 0.3388
vn -0.3022 0.8895 -0.3426
vn -0.5369 -0.5842 -0.6086
vn -0.5369 0.5842 -0.6086
vn -0.5408 -0.5836 0.6059
vn -0.5408 0.5836 0.6059
#end 75 normals 

#begin 136 faces
o Box009
usemtl wire_008061138
g Box009
s 2
f 1/1/1 2/2/2 3/300/3 4/301/4 
s 4
f 5/5/5 6/6/6 7/7/7 8/8/8 
s 8
f 1/1/1 4/4/4 9/9/9 10/10/10 
s 16
f 4/4/4 3/3/3 11/286/11 9/9/9 
s 32
f 3/299/3 2/2/2 12/285/12 11/298/11 
s 64
f 2/2/2 1/1/1 10/10/10 12/285/12 
s 2
f 13/303/1 14/302/2 15/15/3 16/16/4 
s 4
f 17/17/13 18/207/6 19/19/14 20/20/15 
s 8
f 13/13/1 16/16/4 21/264/16 22/288/17 
s 16
f 16/16/4 15/15/3 23/263/18 21/264/16 
s 32
f 15/15/3 14/14/2 24/24/19 23/263/18 
s 64
f 14/304/2 13/13/1 22/288/17 24/297/19 
s 2
f 25/25/1 26/26/2 27/27/3 28/309/4 
s 4
f 29/29/5 30/30/6 31/31/7 32/32/8 
s 8
f 25/25/1 28/28/4 33/33/20 34/34/21 
s 16
f 28/308/4 27/310/3 35/293/22 33/295/20 
s 32
f 27/310/3 26/26/2 36/270/23 35/293/22 
s 64
f 26/26/2 25/25/1 34/34/21 36/270/23 
s 2
f 37/305/1 38/38/2 39/39/3 40/40/4 
s 4
f 41/41/24 42/42/14 43/214/7 44/44/25 
s 8
f 37/306/1 40/307/4 45/267/16 46/296/26 
s 16
f 40/307/4 39/39/3 47/266/18 45/267/16 
s 32
f 39/39/3 38/38/2 48/48/27 47/266/18 
s 64
f 38/38/2 37/37/1 46/290/26 48/48/27 
s 8
f 49/49/28 50/179/29 51/51/30 52/52/30 
s 64
f 52/52/30 51/51/30 53/53/31 54/54/32 
s 8
f 55/219/33 18/18/6 17/203/13 56/218/34 
s 16
f 57/220/35 19/209/14 18/18/6 55/219/33 
f 58/222/18 43/43/7 42/208/14 59/221/36 
s 32
f 60/223/37 44/213/25 43/43/7 58/222/18 
f 61/61/23 62/62/23 63/63/38 64/225/39 
s 64
f 65/65/40 66/66/31 62/62/23 61/61/23 
s off
f 42/42/14 41/41/24 20/20/15 19/19/14 
f 41/210/24 67/229/41 68/231/42 20/206/15 
f 67/229/41 59/59/36 57/230/35 68/231/42 
f 59/221/36 42/208/14 19/209/14 57/220/35 
f 69/69/43 70/163/44 71/143/45 72/72/46 
f 66/66/31 65/65/40 54/54/32 53/53/31 
f 65/237/40 73/73/47 74/234/48 54/217/32 
f 73/73/47 75/75/16 76/76/49 74/234/48 
f 50/179/29 49/49/28 56/218/34 17/203/13 77/77/50 
f 49/233/28 74/234/48 68/231/42 56/56/34 
f 74/234/48 76/76/49 78/205/51 20/206/15 68/231/42 
f 75/75/16 73/73/47 67/229/41 41/210/24 79/176/50 
f 73/73/47 64/64/39 60/227/37 67/229/41 
f 64/225/39 63/63/38 80/212/51 44/213/25 60/223/37 
s 8
f 81/81/16 55/55/33 56/232/34 82/82/52 
s 16
f 83/83/18 57/57/35 55/55/33 81/81/16 
s 32
f 84/243/53 68/68/42 57/57/35 83/83/18 
s 64
f 82/82/52 56/232/34 68/244/42 84/241/53 
s 8
f 85/85/16 59/228/36 67/259/41 86/255/54 
s 16
f 87/87/18 58/58/18 59/228/36 85/85/16 
s 32
f 88/88/55 60/60/37 58/58/18 87/87/18 
s 64
f 86/260/54 67/67/41 60/60/37 88/88/55 
s 8
f 89/261/56 73/238/47 65/224/40 90/253/57 
s 16
f 91/251/58 64/236/39 73/262/47 89/89/56 
s 32
f 92/92/23 61/226/23 64/236/39 91/251/58 
s 64
f 90/253/57 65/224/40 61/226/23 92/92/23 
s 8
f 93/93/59 49/215/28 52/216/30 94/247/10 
s 16
f 95/249/60 74/74/48 49/215/28 93/93/59 
s 32
f 96/246/61 54/235/32 74/250/48 95/95/60 
s 64
f 94/247/10 52/216/30 54/235/32 96/246/61 
s 8
f 9/275/9 93/248/59 94/94/10 10/273/10 
s 64
f 10/273/10 94/94/10 96/278/61 12/274/12 
s 32
f 36/36/23 92/252/23 91/283/58 35/271/22 
s 64
f 34/272/21 90/90/57 92/252/23 36/36/23 
s 8
f 45/45/16 85/256/16 86/281/54 46/268/26 
s 16
f 47/47/18 87/257/18 85/256/16 45/45/16 
s 32
f 48/269/27 88/258/55 87/257/18 47/47/18 
s 8
f 21/21/16 81/239/16 82/280/52 22/22/17 
s 16
f 23/23/18 83/240/18 81/239/16 21/21/16 
s 32
f 24/265/19 84/84/53 83/240/18 23/23/18 
s off
f 96/96/61 95/245/60 89/254/56 90/277/57 
f 84/84/53 24/265/19 46/268/26 86/281/54 
f 11/11/11 12/12/12 34/292/21 33/294/20 
f 12/274/12 96/278/61 90/90/57 34/272/21 
f 91/91/58 89/254/56 86/86/54 88/284/55 
f 95/245/60 93/279/59 82/242/52 84/282/53 
f 93/248/59 9/275/9 22/22/17 82/280/52 
f 9/287/9 11/11/11 24/289/19 22/276/17 
f 33/294/20 35/35/22 48/291/27 46/46/26 
f 35/271/22 91/283/58 88/258/55 48/269/27 
f 51/183/30 50/50/29 97/97/62 98/98/10 
f 77/172/50 78/173/51 99/99/63 100/100/64 
f 76/174/49 75/182/16 101/101/4 102/170/3 
f 79/79/50 80/177/51 103/185/65 104/184/66 
f 63/175/38 62/178/23 105/105/23 106/106/38 
f 62/178/23 66/180/31 107/107/31 105/105/23 
f 66/180/31 53/181/31 108/108/31 107/107/31 
f 53/181/31 51/183/30 98/98/10 108/108/31 
f 97/146/62 109/137/50 110/110/10 98/150/10 
f 111/111/67 112/112/14 113/161/6 114/154/4 
f 115/115/67 116/116/14 112/112/14 111/111/67 
f 117/155/3 118/160/7 116/116/14 115/115/67 
f 105/165/23 119/119/23 120/157/51 106/149/38 
f 107/151/31 70/139/44 119/166/23 105/145/23 
f 108/147/31 71/164/45 70/139/44 107/151/31 
f 98/150/10 110/110/10 71/164/45 108/147/31 
f 72/72/46 109/162/50 113/113/6 112/158/14 
f 109/137/50 97/146/62 100/153/64 114/154/4 113/161/6 
f 102/102/3 101/186/4 104/148/66 115/104/67 111/152/67 99/169/63 
f 106/149/38 120/157/51 118/160/7 117/155/3 103/103/65 
f 120/144/51 69/69/43 116/159/14 118/118/7 
f 69/69/43 72/72/46 112/158/14 116/159/14 
f 72/140/46 71/71/45 8/8/8 7/7/7 
f 71/71/45 110/142/10 5/5/5 8/8/8 
f 110/142/10 109/109/50 6/6/6 5/5/5 
f 109/109/50 72/140/46 7/7/7 6/6/6 
f 70/70/44 69/141/43 30/30/6 29/29/5 
f 69/141/43 120/120/51 31/31/7 30/30/6 
f 120/120/51 119/138/23 32/32/8 31/31/7 
f 119/138/23 70/70/44 29/29/5 32/32/8 
f 89/254/56 95/245/60 84/282/53 86/86/54 
f 11/11/11 33/294/20 46/46/26 24/289/19 
f 76/174/49 102/170/3 99/99/63 78/173/51 
f 97/167/62 50/171/29 77/172/50 100/100/64 
f 63/175/38 106/106/38 103/185/65 80/177/51 
f 101/101/4 75/182/16 79/79/50 104/184/66 
f 78/78/51 77/204/50 17/17/13 20/20/15 
f 100/168/64 99/169/63 111/152/67 114/114/4 
f 80/80/51 79/211/50 41/41/24 44/44/25 
f 104/148/66 103/156/65 117/117/3 115/104/67 
s 2
f 121/121/1 122/122/2 123/123/68 124/124/69 
s 4
f 125/125/5 126/195/70 127/201/71 128/128/8 
s 8
f 121/192/1 124/194/69 126/126/70 125/196/5 
s 16
f 129/129/4 130/188/3 131/131/7 132/132/6 
s 32
f 130/188/3 133/189/72 134/134/73 131/131/7 
s 64
f 122/191/2 121/192/1 125/196/5 128/202/8 
s 2
f 133/133/72 130/130/3 129/187/4 135/193/74 
s 4
f 136/197/75 132/198/6 131/199/7 134/200/73 
s 8
f 135/135/74 129/129/4 132/132/6 136/136/75 
s 32
f 133/189/72 123/190/68 127/127/71 134/134/73 
s 2
f 123/123/68 133/133/72 135/193/74 124/124/69 
s 4
f 126/195/70 136/197/75 134/200/73 127/201/71 
s 8
f 124/194/69 135/135/74 136/136/75 126/126/70 
s 32
f 123/190/68 122/191/2 128/202/8 127/127/71 
#end 136 faces

#begin properties
#ZOMPROPERTIES_02 table {Mesh table {SymPlane table {Point vector3d 0 0 0 Normal vector3d 1 0 0 Threshold double 0.01 Enabled bool false EdgeID int -1 SymEdgeID int -1 UPos double 0.5 LocalMode bool false } RootGroup CSubMeshGroup {Children table {Tile_0_0 CSubMeshGroup {Children table {G0 CSubMeshGroup {Children table {} BBoxUV box3d 0.3891352 0.7562572 0.635189 0.9897904 0 0 BBox3D box3d 0 0 0 0 0 0 AreaUV double 0.07227664 Area3D double 0 IsRoot bool false TopoStable table {Selected bool false Box box3d 0.3891352 0.7720264 0.635189 0.9990014 0 0 U int 0 V int 0 NU int 0 NV int 0 Tiling vector3d 1 1 1 TileRatioMode string "1:1" } IsTile bool false PolyIDs ints { 122 132 128 123 133 129 124 134 130 125 126 131 135 127 } } G3 CSubMeshGroup {Children table {} BBoxUV box3d 0.3217141 0.4303303 0.001953125 0.3213225 0 0 BBox3D box3d 0 0 0 0 0 0 AreaUV double 0.007767996 Area3D double 0 IsRoot bool false TopoStable table {Selected bool false Box box3d 0.3217141 0.4586307 0.001953125 0.3779511 0 0 U int 0 V int 0 NU int 0 NV int 0 Tiling vector3d 1 1 1 TileRatioMode string "1:1" } IsTile bool false PolyIDs ints { 7 32 19 120 118 } } G2 CSubMeshGroup {Children table {} BBoxUV box3d 0.1070462 0.1516398 0.001953125 0.2533366 0 0 BBox3D box3d 0 0 0 0 0 0 AreaUV double 0.01121009 Area3D double 0 IsRoot bool false TopoStable table {Selected bool false Box box3d 0.1070462 0.1583771 0.001953125 0.2777882 0 0 U int 0 V int 0 NU int 0 NV int 0 Tiling vector3d 1 1 1 TileRatioMode string "1:1" } IsTile bool false PolyIDs ints { 82 89 88 87 86 116 85 117 84 114 83 115 } } G1 CSubMeshGroup {Children table {} BBoxUV box3d 0.04664349 0.06838368 0.02678195 0.2768027 0 0 BBox3D box3d 0 0 0 0 0 0 AreaUV double 0.00293615 Area3D double 0 IsRoot bool false TopoStable table {Selected bool false Box box3d 0.04664349 0.06838368 0.02678195 0.2768027 0 0 U int 0 V int 0 NU int 0 NV int 0 Tiling vector3d 1 1 1 TileRatioMode string "1:1" } IsTile bool false PolyIDs ints { 36 103 98 102 90 97 96 95 99 91 92 93 101 94 100 121 119 } } G9 CSubMeshGroup {Children table {} BBoxUV box3d 0.5502902 0.8791 0.01989591 0.2878379 0 0 BBox3D box3d 0 0 0 0 0 0 AreaUV double 0.04750422 Area3D double 0 IsRoot bool false TopoStable table {Selected bool false Box box3d 0.5502902 0.8752982 0.01989591 0.2989849 0 0 U int 0 V int 0 NU int 0 NV int 0 Tiling vector3d 1 1 1 TileRatioMode string "1:1" } IsTile bool false PolyIDs ints { 0 5 2 3 4 6 9 10 8 11 12 17 14 16 15 18 22 23 21 20 } } G8 CSubMeshGroup {Children table {} BBoxUV box3d 0.04650049 0.295787 0.3160493 0.5900048 0 0 BBox3D box3d 0 0 0 0 0 0 AreaUV double 0.05901356 Area3D double 0 IsRoot bool false TopoStable table {Selected bool false Box box3d 0.04650049 0.295787 0.3160493 0.5900048 0 0 U int 0 V int 0 NU int 0 NV int 0 Tiling vector3d 1 1 1 TileRatioMode string "1:1" Pack table {Stacked bool true } } IsTile bool false PolyIDs ints { 72 112 77 76 74 113 80 79 } } G5 CSubMeshGroup {Children table {} BBoxUV box3d 0.4860066 0.6390533 0.3345047 0.4722186 0 0 BBox3D box3d 0 0 0 0 0 0 AreaUV double 0.0008682814 Area3D double 0 IsRoot bool false TopoStable table {Selected bool false Box box3d 0.4860066 0.6642201 0.3345047 0.5074937 0 0 U int 0 V int 0 NU int 0 NV int 0 Tiling vector3d 1 1 1 TileRatioMode string "1:1" } IsTile bool false PolyIDs ints { 62 63 75 65 64 81 68 67 66 73 71 70 69 78 } } G6 CSubMeshGroup {Children table {} BBoxUV box3d 0.7222835 0.8361992 0.3521078 0.5867699 0 0 BBox3D box3d 0 0 0 0 0 0 AreaUV double 0.1069269 Area3D double 0 IsRoot bool false TopoStable table {Selected bool true Box box3d 0.7222835 0.8707585 0.3521078 0.6088252 0 0 U int 0 V int 0 NU int 0 NV int 0 Tiling vector3d 1 1 1 TileRatioMode string "1:1" Pack table {Stacked bool true } } IsTile bool false PolyIDs ints { 46 49 47 48 50 51 52 53 54 57 56 55 58 61 60 59 } } G4 CSubMeshGroup {Children table {} BBoxUV box3d 0.02152877 0.282429 0.6431 0.9508372 0 0 BBox3D box3d 0 0 0 0 0 0 AreaUV double 0.01296728 Area3D double 0 IsRoot bool false TopoStable table {Selected bool false Box box3d 0.02152877 0.2340665 0.6431 1.025231 0 0 U int 0 V int 0 NU int 0 NV int 0 Tiling vector3d 1 1 1 TileRatioMode string "1:1" } IsTile bool false PolyIDs ints { 24 25 37 31 30 45 29 28 35 27 26 40 33 42 39 43 38 41 34 44 } } } BBoxUV box3d 0 0 0 0 0 0 BBox3D box3d 0 0 0 0 0 0 AreaUV double 0.3214743 Area3D double 0 IsRoot bool false TopoStable table {Selected bool false Box box3d 0 1 0 1 0 1 U int 0 V int 0 NU int 0 NV int 0 Tiling vector3d 1 1 1 TileRatioMode string "1:1" } IsTile bool true PolyIDs ints { 1 104 105 107 106 13 110 111 109 108 } } } BBoxUV box3d 0 0 0 0 0 0 BBox3D box3d 0 0 0 0 0 0 AreaUV double 0 Area3D double 0 IsRoot bool true TopoStable table {Selected bool false Box box3d 0 1 0 1 0 1 U int 0 V int 0 NU int 1 NV int 1 Tiling vector3d 1 1 1 TileRatioMode string "1:1" Pack table {Rotate table {Mode int 2 Min double 0 Max double 180 Step double 0 } SpacingSize double 0.00390625 MarginSize double 0.001953125 Resolution int 200 Scaling table {Mode int 0 } LayoutScalingMode int 2 MaxMutations int 1 } } IsTile bool false PolyIDs ints { } } Maps table {Density table {PrimType string "Polygon" Size int 1 DefaultValue double 1 ScaleType string "Log" MinValue double 0.1 MaxValue double 4 Data doubles { r 136 1 } } Pin table {PrimType string "Vertex" Size int 1 DefaultValue double 0 ScaleType string "Normalized" MinValue double 0 MaxValue double 1 Data doubles { r 310 0 } } Protect table {PrimType string "Vertex" Size int 1 DefaultValue double 0 ScaleType string "Normalized" MinValue double -1 MaxValue double 1 Data doubles { r 310 0 } } } } }
#end properties

#begin 0 fatal error vertex (that RizomUV cannot handle)
#end 0 fatal error vertex (that RizomUV cannot handle)

#begin 0 error vertex
#end 0 error vertex
